{"search_result":{"facets":{"tag":{"excelente":1,"air-bag-duplo":1,"hospital":1,"casas-de-aluguel-lit":1,"carro-barato":1,"jardim":1,"brooklin":1,"gol-":1,"motor":17,"veiculo":1,"retrovisores-eletric":1,"fiat-elba-alcoo":1,"auto":33,"ar-condicionado":1,"feira":1,"peugeot":1,"casa":47,"computador-de-bordo":1,"utilitario-fiat-elba":1,"palio":1,"branco":1,"travas-eletricas":1,"carros-refrigerados":1,"escort":1,"206":1,"vende-se":2,"venda":1,"residencial":1,"permuta":1,"ibirapuera":1,"ar-quente":1,"brooklin-velho":1,"carros-santo-andre":1,"otimo-negocio":1,"2300":1,"alfa-romeo":1,"ecosport":1,"encosto-de-cabeca-tr":1,"fiat-uno":1,"usados":1,"fiat-elba":1,"1986":1,"automovel":1,"aluga-se-casas-toque":1,"carros":2,"desembacador-traseir":1,"vende":1,"fiat-premio":1,"banco-do-motorista-c":1,"limpador-traseiro":1,"aluguel-casas-tempor":1,"16-v":1,"ti4":1,"1989":1,"barato":1,"aluguel-de-casas-lit":1,"a-50-mts-do-metro-be":1,"financiamento":1,"sobrado":1,"air-bag-do-motorista":1,"baixo-preco":1,"casa-luguel-toque-to":1,"compras":1,"alcool":1,"perua":1,"usado":2,"fiat-elba-1-5-89":1,"verde":1,"1-6":1,"clio":1,"volkswagem":1,"shopping-morumbi":1,"sao-paulo":2,"kombi":1,"zona-sul":1,"velho":1,"troca":1,"casas-alugam-toque-t":1,"carro":100,"picapes-ranger-ford":1,"casa carro":29,"estado":1,"bom-negocio":1,"direcao":1}},"created_at":null,"queries":[],"total_pages":10,"updated_at":null,"page":3,"count":140,"advertises":[{"price":null,"dynamic_attributes":[],"created_at":"2009-11-17T14:57:50Z","avatar_file_size":null,"avatar_file_name":null,"title":null,"updated_at":"2009-11-17T14:57:50Z","tags":[{"tag":{"name":"casa carro","id":5}}],"owner_id":null,"id":858,"avatar_content_type":null,"description":null,"avatar_updated_at":null,"business_owner_id":1},{"price":null,"dynamic_attributes":[],"created_at":"2009-11-17T14:57:50Z","avatar_file_size":null,"avatar_file_name":null,"title":null,"updated_at":"2009-11-17T14:57:50Z","tags":[{"tag":{"name":"carro","id":1}},{"tag":{"name":"casa","id":3}}],"owner_id":null,"id":859,"avatar_content_type":null,"description":null,"avatar_updated_at":null,"business_owner_id":1},{"price":null,"dynamic_attributes":[],"created_at":"2009-11-17T14:57:50Z","avatar_file_size":null,"avatar_file_name":null,"title":null,"updated_at":"2009-11-17T14:57:50Z","tags":[{"tag":{"name":"casa carro","id":5}}],"owner_id":null,"id":860,"avatar_content_type":null,"description":null,"avatar_updated_at":null,"business_owner_id":1},{"price":null,"dynamic_attributes":[],"created_at":"2009-11-17T14:59:04Z","avatar_file_size":null,"avatar_file_name":null,"title":null,"updated_at":"2009-11-17T14:59:04Z","tags":[{"tag":{"name":"casa","id":3}},{"tag":{"name":"carro","id":1}}],"owner_id":null,"id":862,"avatar_content_type":null,"description":null,"avatar_updated_at":null,"business_owner_id":1},{"price":null,"dynamic_attributes":[],"created_at":"2009-11-17T14:59:04Z","avatar_file_size":null,"avatar_file_name":null,"title":null,"updated_at":"2009-11-17T14:59:04Z","tags":[{"tag":{"name":"carro","id":1}},{"tag":{"name":"auto","id":4}}],"owner_id":null,"id":863,"avatar_content_type":null,"description":null,"avatar_updated_at":null,"business_owner_id":1},{"price":null,"dynamic_attributes":[],"created_at":"2009-11-17T14:59:22Z","avatar_file_size":null,"avatar_file_name":null,"title":null,"updated_at":"2009-11-17T14:59:22Z","tags":[{"tag":{"name":"casa","id":3}},{"tag":{"name":"carro","id":1}}],"owner_id":null,"id":866,"avatar_content_type":null,"description":null,"avatar_updated_at":null,"business_owner_id":1},{"price":null,"dynamic_attributes":[],"created_at":"2009-11-17T14:59:23Z","avatar_file_size":null,"avatar_file_name":null,"title":null,"updated_at":"2009-11-17T14:59:23Z","tags":[{"tag":{"name":"carro","id":1}},{"tag":{"name":"auto","id":4}}],"owner_id":null,"id":867,"avatar_content_type":null,"description":null,"avatar_updated_at":null,"business_owner_id":1},{"price":null,"dynamic_attributes":[],"created_at":"2009-11-17T14:59:27Z","avatar_file_size":null,"avatar_file_name":null,"title":null,"updated_at":"2009-11-17T14:59:27Z","tags":[{"tag":{"name":"casa carro","id":5}}],"owner_id":null,"id":869,"avatar_content_type":null,"description":null,"avatar_updated_at":null,"business_owner_id":1},{"price":null,"dynamic_attributes":[],"created_at":"2009-11-17T14:59:27Z","avatar_file_size":null,"avatar_file_name":null,"title":null,"updated_at":"2009-11-17T14:59:27Z","tags":[{"tag":{"name":"carro","id":1}},{"tag":{"name":"casa","id":3}}],"owner_id":null,"id":870,"avatar_content_type":null,"description":null,"avatar_updated_at":null,"business_owner_id":1},{"price":null,"dynamic_attributes":[],"created_at":"2009-11-17T14:59:28Z","avatar_file_size":null,"avatar_file_name":null,"title":null,"updated_at":"2009-11-17T14:59:28Z","tags":[{"tag":{"name":"casa carro","id":5}}],"owner_id":null,"id":871,"avatar_content_type":null,"description":null,"avatar_updated_at":null,"business_owner_id":1},{"price":null,"dynamic_attributes":[],"created_at":"2009-11-17T15:00:34Z","avatar_file_size":null,"avatar_file_name":null,"title":null,"updated_at":"2009-11-17T15:00:34Z","tags":[{"tag":{"name":"casa","id":3}},{"tag":{"name":"carro","id":1}}],"owner_id":null,"id":873,"avatar_content_type":null,"description":null,"avatar_updated_at":null,"business_owner_id":1},{"price":null,"dynamic_attributes":[],"created_at":"2009-11-17T15:00:34Z","avatar_file_size":null,"avatar_file_name":null,"title":null,"updated_at":"2009-11-17T15:00:34Z","tags":[{"tag":{"name":"carro","id":1}},{"tag":{"name":"auto","id":4}}],"owner_id":null,"id":874,"avatar_content_type":null,"description":null,"avatar_updated_at":null,"business_owner_id":1},{"price":null,"dynamic_attributes":[],"created_at":"2009-11-17T15:00:52Z","avatar_file_size":null,"avatar_file_name":null,"title":null,"updated_at":"2009-11-17T15:00:52Z","tags":[{"tag":{"name":"casa","id":3}},{"tag":{"name":"carro","id":1}}],"owner_id":null,"id":877,"avatar_content_type":null,"description":null,"avatar_updated_at":null,"business_owner_id":1},{"price":null,"dynamic_attributes":[],"created_at":"2009-11-17T15:00:52Z","avatar_file_size":null,"avatar_file_name":null,"title":null,"updated_at":"2009-11-17T15:00:52Z","tags":[{"tag":{"name":"carro","id":1}},{"tag":{"name":"auto","id":4}}],"owner_id":null,"id":878,"avatar_content_type":null,"description":null,"avatar_updated_at":null,"business_owner_id":1},{"price":null,"dynamic_attributes":[],"created_at":"2009-11-17T15:00:56Z","avatar_file_size":null,"avatar_file_name":null,"title":null,"updated_at":"2009-11-17T15:00:56Z","tags":[{"tag":{"name":"casa carro","id":5}}],"owner_id":null,"id":880,"avatar_content_type":null,"description":null,"avatar_updated_at":null,"business_owner_id":1}]}}
